{
    "defaultSeverity": "error",
    "extends": [
        "tslint:recommended"
    ],
    "jsRules": {},
    "rules": {
        "arrow-parens": false,
        "curly": false,
        "interface-name": false,
        "member-ordering": false,
        "object-literal-sort-keys": false,
        "trailing-comma": false,
        "max-classes-per-file": false
    },
    "rulesDirectory": []
}